ID,HOLIDAY,DATE,LAST_UDATE_DATE
0,New Year's Day,2016-01-01,2020-09-17
1,Martin Luther King Jr. Day,2016-01-18,2020-09-17
2,President's Day,2016-02-15,2020-09-17
3,Good Friday,2016-03-25,2020-09-17
4,Memorial Day,2016-05-30,2020-09-17
5,Independence Day,2016-07-04,2020-09-17
6,Labor Day,2016-09-05,2020-09-17
7,Thanksgiving Day,2016-11-24,2020-09-17
8,Christmas Day,2016-12-26,2020-09-17
9,New Year's Day,2017-01-02,2020-09-17
10,Martin Luther King Jr. Day,2017-01-16,2020-09-17
11,President's Day,2017-02-20,2020-09-17
12,Good Friday,2017-04-14,2020-09-17
13,Memorial Day,2017-05-29,2020-09-17
14,Independence Day,2017-07-04,2020-09-17
15,Labor Day,2017-09-04,2020-09-17
16,Thanksgiving Day,2017-11-23,2020-09-17
17,Christmas Day,2017-12-25,2020-09-17
18,New Year's Day,2018-01-01,2020-09-17
19,Martin Luther King Jr. Day,2018-01-15,2020-09-17
20,President's Day,2018-02-19,2020-09-17
21,Good Friday,2018-03-30,2020-09-17
22,Memorial Day,2018-05-28,2020-09-17
23,Independence Day,2018-07-04,2020-09-17
24,Labor Day,2018-09-03,2020-09-17
25,Thanksgiving Day,2018-11-22,2020-09-17
26,Christmas Day,2018-12-25,2020-09-17
27,New Year's Day,2019-01-01,2020-09-17
28,Martin Luther King Jr. Day,2019-01-21,2020-09-17
29,President's Day,2019-02-18,2020-09-17
30,Good Friday,2019-04-19,2020-09-17
31,Memorial Day,2019-05-27,2020-09-17
32,Independence Day,2019-07-04,2020-09-17
33,Labor Day,2019-09-02,2020-09-17
34,Thanksgiving Day,2019-11-28,2020-09-17
35,Christmas Day,2019-12-25,2020-09-17
36,New Year's Day,2020-01-01,2020-09-17
37,Martin Luther King Jr. Day,2020-01-20,2020-09-17
38,President's Day,2020-02-17,2020-09-17
39,Good Friday,2020-04-10,2020-09-17
40,Memorial Day,2020-05-25,2020-09-17
41,Independence Day,2020-07-03,2020-09-17
42,Labor Day,2020-09-07,2020-09-17
43,Thanksgiving Day,2020-11-26,2020-09-17
44,Christmas Day,2020-12-25,2020-09-17
45,New Year's Day,2021-01-01,2020-09-17
46,Martin Luther King Jr. Day,2021-01-18,2020-09-17
47,President's Day,2021-02-15,2020-09-17
48,Good Friday,2021-04-02,2020-09-17
49,Memorial Day,2021-05-31,2020-09-17
50,Independence Day,2021-07-05,2020-09-17
51,Labor Day,2021-09-06,2020-09-17
52,Thanksgiving Day,2021-11-25,2020-09-17
53,Christmas Day,2021-12-24,2020-09-17
54,New Year's Day,2021-12-31,2020-09-17
55,Martin Luther King Jr. Day,2022-01-17,2020-09-17
56,President's Day,2022-02-21,2020-09-17
57,Good Friday,2022-04-15,2020-09-17
58,Memorial Day,2022-05-30,2020-09-17
59,Independence Day,2022-07-04,2020-09-17
60,Labor Day,2022-09-05,2020-09-17
61,Thanksgiving Day,2022-11-24,2020-09-17
62,Christmas Day,2022-12-26,2020-09-17
63,New Year's Day,2023-01-02,2020-09-17
64,Martin Luther King Jr. Day,2023-01-16,2020-09-17
65,President's Day,2023-02-20,2020-09-17
66,Good Friday,2023-04-07,2020-09-17
67,Memorial Day,2023-05-29,2020-09-17
68,Independence Day,2023-07-04,2020-09-17
69,Labor Day,2023-09-04,2020-09-17
70,Thanksgiving Day,2023-11-23,2020-09-17
71,Christmas Day,2023-12-25,2020-09-17
72,New Year's Day,2024-01-01,2020-09-17
73,Martin Luther King Jr. Day,2024-01-15,2020-09-17
74,President's Day,2024-02-19,2020-09-17
75,Good Friday,2024-03-19,2020-09-17
76,Memorial Day,2024-05-27,2020-09-17
77,Independence Day,2024-07-04,2020-09-17
78,Labor Day,2024-09-02,2020-09-17
79,Thanksgiving Day,2024-11-28,2020-09-17
80,Christmas Day,2024-12-25,2020-09-17
81,New Year's Day,2025-01-01,2020-09-17
82,Martin Luther King Jr. Day,2025-01-20,2020-09-17
83,President's Day,2025-02-17,2020-09-17
84,Good Friday,2025-04-18,2020-09-17
85,Memorial Day,2025-05-26,2020-09-17
86,Independence Day,2025-07-04,2020-09-17
87,Labor Day,2025-09-01,2020-09-17
88,Thanksgiving Day,2025-11-27,2020-09-17
89,Christmas Day,2025-12-25,2020-09-17